\relax 
\providecommand\hyper@newdestlabel[2]{}
\providecommand\HyperFirstAtBeginDocument{\AtBeginDocument}
\HyperFirstAtBeginDocument{\ifx\hyper@anchor\@undefined
\global\let\oldcontentsline\contentsline
\gdef\contentsline#1#2#3#4{\oldcontentsline{#1}{#2}{#3}}
\global\let\oldnewlabel\newlabel
\gdef\newlabel#1#2{\newlabelxx{#1}#2}
\gdef\newlabelxx#1#2#3#4#5#6{\oldnewlabel{#1}{{#2}{#3}}}
\AtEndDocument{\ifx\hyper@anchor\@undefined
\let\contentsline\oldcontentsline
\let\newlabel\oldnewlabel
\fi}
\fi}
\global\let\hyper@last\relax 
\gdef\HyperFirstAtBeginDocument#1{#1}
\providecommand\HyField@AuxAddToFields[1]{}
\providecommand\HyField@AuxAddToCoFields[2]{}
\catcode `:\active 
\catcode `;\active 
\catcode `!\active 
\catcode `?\active 
\@writefile{toc}{\beamer@endinputifotherversion {3.33pt}}
\@writefile{nav}{\beamer@endinputifotherversion {3.33pt}}
\select@language{french}
\@writefile{toc}{\select@language{french}}
\@writefile{lof}{\select@language{french}}
\@writefile{lot}{\select@language{french}}
\@writefile{nav}{\headcommand {\beamer@subsectionentry {0}{0}{1}{1}{}}\headcommand {\beamer@subsectionpages {1}{0}}}
\@writefile{nav}{\headcommand {\slideentry {0}{1}{1}{1/1}{}{0}}}
\@writefile{nav}{\headcommand {\beamer@framepages {1}{1}}}
\@writefile{nav}{\headcommand {\slideentry {0}{1}{2}{2/2}{}{0}}}
\@writefile{nav}{\headcommand {\beamer@framepages {2}{2}}}
\@writefile{toc}{\beamer@sectionintoc {1}{Intranet}{3}{0}{1}}
\@writefile{nav}{\headcommand {\sectionentry {1}{Intranet}{3}{Intranet}{0}}}
\@writefile{nav}{\headcommand {\beamer@sectionpages {1}{2}}}
\@writefile{nav}{\headcommand {\beamer@subsectionpages {1}{2}}}
\@writefile{toc}{\beamer@subsectionintoc {1}{1}{Recul}{3}{0}{1}}
\@writefile{nav}{\headcommand {\beamer@subsectionentry {0}{1}{1}{3}{Recul}}\headcommand {\beamer@subsectionpages {3}{2}}}
\@writefile{nav}{\headcommand {\slideentry {1}{1}{1}{3/3}{Recul}{0}}}
\@writefile{nav}{\headcommand {\beamer@framepages {3}{3}}}
\@writefile{nav}{\headcommand {\slideentry {1}{1}{2}{4/4}{Recul}{0}}}
\@writefile{nav}{\headcommand {\beamer@framepages {4}{4}}}
\@writefile{nav}{\headcommand {\slideentry {1}{1}{3}{5/5}{Recul}{0}}}
\@writefile{nav}{\headcommand {\beamer@framepages {5}{5}}}
\@writefile{toc}{\beamer@sectionintoc {2}{Infrastructure}{6}{0}{2}}
\@writefile{nav}{\headcommand {\sectionentry {2}{Infra}{6}{Infrastructure}{0}}}
\@writefile{nav}{\headcommand {\beamer@sectionpages {3}{5}}}
\@writefile{nav}{\headcommand {\beamer@subsectionpages {3}{5}}}
\@writefile{toc}{\beamer@subsectionintoc {2}{1}{DHCP}{6}{0}{2}}
\@writefile{nav}{\headcommand {\beamer@subsectionentry {0}{2}{1}{6}{DHCP}}\headcommand {\beamer@subsectionpages {6}{5}}}
\@writefile{nav}{\headcommand {\slideentry {2}{1}{1}{6/6}{DHCP}{0}}}
\@writefile{nav}{\headcommand {\beamer@framepages {6}{6}}}
\@writefile{nav}{\headcommand {\slideentry {2}{1}{2}{7/7}{DHCP}{0}}}
\@writefile{nav}{\headcommand {\beamer@framepages {7}{7}}}
\@writefile{nav}{\headcommand {\slideentry {2}{1}{3}{8/8}{DHCP}{0}}}
\@writefile{nav}{\headcommand {\beamer@framepages {8}{8}}}
\@writefile{nav}{\headcommand {\slideentry {2}{1}{4}{9/9}{DHCP}{0}}}
\@writefile{nav}{\headcommand {\beamer@framepages {9}{9}}}
\@writefile{toc}{\beamer@subsectionintoc {2}{2}{DNS}{10}{0}{2}}
\@writefile{nav}{\headcommand {\beamer@subsectionentry {0}{2}{2}{10}{DNS}}\headcommand {\beamer@subsectionpages {6}{9}}}
\@writefile{nav}{\headcommand {\slideentry {2}{2}{1}{10/10}{DNS}{0}}}
\@writefile{nav}{\headcommand {\beamer@framepages {10}{10}}}
\@writefile{nav}{\headcommand {\slideentry {2}{2}{2}{11/11}{DNS}{0}}}
\@writefile{nav}{\headcommand {\beamer@framepages {11}{11}}}
\@writefile{nav}{\headcommand {\slideentry {2}{2}{3}{12/12}{DNS}{0}}}
\@writefile{nav}{\headcommand {\beamer@framepages {12}{12}}}
\@writefile{nav}{\headcommand {\slideentry {2}{2}{4}{13/13}{DNS}{0}}}
\@writefile{nav}{\headcommand {\beamer@framepages {13}{13}}}
\@writefile{nav}{\headcommand {\slideentry {2}{2}{5}{14/14}{DNS}{0}}}
\@writefile{nav}{\headcommand {\beamer@framepages {14}{14}}}
\@writefile{nav}{\headcommand {\slideentry {2}{2}{6}{15/15}{DNS}{0}}}
\@writefile{nav}{\headcommand {\beamer@framepages {15}{15}}}
\@writefile{nav}{\headcommand {\slideentry {2}{2}{7}{16/16}{DNS}{0}}}
\@writefile{nav}{\headcommand {\beamer@framepages {16}{16}}}
\@writefile{nav}{\headcommand {\slideentry {2}{2}{8}{17/17}{DNS}{0}}}
\@writefile{nav}{\headcommand {\beamer@framepages {17}{17}}}
\@writefile{toc}{\beamer@subsectionintoc {2}{3}{NTP}{18}{0}{2}}
\@writefile{nav}{\headcommand {\beamer@subsectionentry {0}{2}{3}{18}{NTP}}\headcommand {\beamer@subsectionpages {10}{17}}}
\@writefile{nav}{\headcommand {\slideentry {2}{3}{1}{18/18}{NTP}{0}}}
\@writefile{nav}{\headcommand {\beamer@framepages {18}{18}}}
\@writefile{nav}{\headcommand {\slideentry {2}{3}{2}{19/19}{NTP}{0}}}
\@writefile{nav}{\headcommand {\beamer@framepages {19}{19}}}
\@writefile{nav}{\headcommand {\slideentry {2}{3}{3}{20/20}{NTP}{0}}}
\@writefile{nav}{\headcommand {\beamer@framepages {20}{20}}}
\@writefile{toc}{\beamer@sectionintoc {3}{NFS et r\IeC {\'e}seaux Unix}{21}{0}{3}}
\@writefile{nav}{\headcommand {\sectionentry {3}{NFS...}{21}{NFS et r\IeC {\'e}seaux Unix}{0}}}
\@writefile{nav}{\headcommand {\beamer@sectionpages {6}{20}}}
\@writefile{nav}{\headcommand {\beamer@subsectionpages {18}{20}}}
\@writefile{toc}{\beamer@subsectionintoc {3}{1}{NFS}{21}{0}{3}}
\@writefile{nav}{\headcommand {\beamer@subsectionentry {0}{3}{1}{21}{NFS}}\headcommand {\beamer@subsectionpages {21}{20}}}
\@writefile{nav}{\headcommand {\slideentry {3}{1}{1}{21/21}{NFS}{0}}}
\@writefile{nav}{\headcommand {\beamer@framepages {21}{21}}}
\@writefile{nav}{\headcommand {\slideentry {3}{1}{2}{22/22}{NFS}{0}}}
\@writefile{nav}{\headcommand {\beamer@framepages {22}{22}}}
\@writefile{nav}{\headcommand {\slideentry {3}{1}{3}{23/23}{NFS}{0}}}
\@writefile{nav}{\headcommand {\beamer@framepages {23}{23}}}
\@writefile{nav}{\headcommand {\slideentry {3}{1}{4}{24/24}{NFS}{0}}}
\@writefile{nav}{\headcommand {\beamer@framepages {24}{24}}}
\@writefile{nav}{\headcommand {\slideentry {3}{1}{5}{25/25}{NFS}{0}}}
\@writefile{nav}{\headcommand {\beamer@framepages {25}{25}}}
\@writefile{nav}{\headcommand {\slideentry {3}{1}{6}{26/26}{NFS}{0}}}
\@writefile{nav}{\headcommand {\beamer@framepages {26}{26}}}
\@writefile{nav}{\headcommand {\slideentry {3}{1}{7}{27/27}{NFS}{0}}}
\@writefile{nav}{\headcommand {\beamer@framepages {27}{27}}}
\@writefile{nav}{\headcommand {\slideentry {3}{1}{8}{28/28}{NFS}{0}}}
\@writefile{nav}{\headcommand {\beamer@framepages {28}{28}}}
\@writefile{toc}{\beamer@subsectionintoc {3}{2}{NIS}{29}{0}{3}}
\@writefile{nav}{\headcommand {\beamer@subsectionentry {0}{3}{2}{29}{NIS}}\headcommand {\beamer@subsectionpages {21}{28}}}
\@writefile{nav}{\headcommand {\slideentry {3}{2}{1}{29/29}{NIS}{0}}}
\@writefile{nav}{\headcommand {\beamer@framepages {29}{29}}}
\@writefile{nav}{\headcommand {\slideentry {3}{2}{2}{30/30}{NIS}{0}}}
\@writefile{nav}{\headcommand {\beamer@framepages {30}{30}}}
\@writefile{nav}{\headcommand {\slideentry {3}{2}{3}{31/31}{NIS}{0}}}
\@writefile{nav}{\headcommand {\beamer@framepages {31}{31}}}
\@writefile{nav}{\headcommand {\slideentry {3}{2}{4}{32/32}{NIS}{0}}}
\@writefile{nav}{\headcommand {\beamer@framepages {32}{32}}}
\@writefile{nav}{\headcommand {\slideentry {3}{2}{5}{33/33}{NIS}{0}}}
\@writefile{nav}{\headcommand {\beamer@framepages {33}{33}}}
\@writefile{toc}{\beamer@subsectionintoc {3}{3}{Impression}{34}{0}{3}}
\@writefile{nav}{\headcommand {\beamer@subsectionentry {0}{3}{3}{34}{Impression}}\headcommand {\beamer@subsectionpages {29}{33}}}
\@writefile{nav}{\headcommand {\slideentry {3}{3}{1}{34/34}{Impression}{0}}}
\@writefile{nav}{\headcommand {\beamer@framepages {34}{34}}}
\@writefile{nav}{\headcommand {\slideentry {3}{3}{2}{35/35}{Impression}{0}}}
\@writefile{nav}{\headcommand {\beamer@framepages {35}{35}}}
\@writefile{nav}{\headcommand {\slideentry {3}{3}{3}{36/36}{Impression}{0}}}
\@writefile{nav}{\headcommand {\beamer@framepages {36}{36}}}
\@writefile{nav}{\headcommand {\slideentry {3}{3}{4}{37/37}{Impression}{0}}}
\@writefile{nav}{\headcommand {\beamer@framepages {37}{37}}}
\@writefile{toc}{\beamer@sectionintoc {4}{Samba}{38}{0}{4}}
\@writefile{nav}{\headcommand {\sectionentry {4}{Samba}{38}{Samba}{0}}}
\@writefile{nav}{\headcommand {\beamer@sectionpages {21}{37}}}
\@writefile{nav}{\headcommand {\beamer@subsectionpages {34}{37}}}
\@writefile{toc}{\beamer@subsectionintoc {4}{1}{Samba}{38}{0}{4}}
\@writefile{nav}{\headcommand {\beamer@subsectionentry {0}{4}{1}{38}{Samba}}\headcommand {\beamer@subsectionpages {38}{37}}}
\@writefile{nav}{\headcommand {\slideentry {4}{1}{1}{38/38}{Samba}{0}}}
\@writefile{nav}{\headcommand {\beamer@framepages {38}{38}}}
\@writefile{nav}{\headcommand {\slideentry {4}{1}{2}{39/39}{Samba}{0}}}
\@writefile{nav}{\headcommand {\beamer@framepages {39}{39}}}
\@writefile{nav}{\headcommand {\slideentry {4}{1}{3}{40/40}{Samba}{0}}}
\@writefile{nav}{\headcommand {\beamer@framepages {40}{40}}}
\@writefile{nav}{\headcommand {\slideentry {4}{1}{4}{41/41}{Samba}{0}}}
\@writefile{nav}{\headcommand {\beamer@framepages {41}{41}}}
\@writefile{nav}{\headcommand {\slideentry {4}{1}{5}{42/42}{Samba}{0}}}
\@writefile{nav}{\headcommand {\beamer@framepages {42}{42}}}
\@writefile{toc}{\beamer@subsectionintoc {4}{2}{NetBIOS}{43}{0}{4}}
\@writefile{nav}{\headcommand {\beamer@subsectionentry {0}{4}{2}{43}{NetBIOS}}\headcommand {\beamer@subsectionpages {38}{42}}}
\@writefile{nav}{\headcommand {\slideentry {4}{2}{1}{43/43}{NetBIOS}{0}}}
\@writefile{nav}{\headcommand {\beamer@framepages {43}{43}}}
\@writefile{nav}{\headcommand {\slideentry {4}{2}{2}{44/44}{NetBIOS}{0}}}
\@writefile{nav}{\headcommand {\beamer@framepages {44}{44}}}
\@writefile{nav}{\headcommand {\slideentry {4}{2}{3}{45/45}{NetBIOS}{0}}}
\@writefile{nav}{\headcommand {\beamer@framepages {45}{45}}}
\@writefile{nav}{\headcommand {\slideentry {4}{2}{4}{46/46}{NetBIOS}{0}}}
\@writefile{nav}{\headcommand {\beamer@framepages {46}{46}}}
\@writefile{nav}{\headcommand {\slideentry {4}{2}{5}{47/47}{NetBIOS}{0}}}
\@writefile{nav}{\headcommand {\beamer@framepages {47}{47}}}
\@writefile{toc}{\beamer@subsectionintoc {4}{3}{SMB / CIFS}{48}{0}{4}}
\@writefile{nav}{\headcommand {\beamer@subsectionentry {0}{4}{3}{48}{SMB / CIFS}}\headcommand {\beamer@subsectionpages {43}{47}}}
\@writefile{nav}{\headcommand {\slideentry {4}{3}{1}{48/48}{SMB / CIFS}{0}}}
\@writefile{nav}{\headcommand {\beamer@framepages {48}{48}}}
\@writefile{nav}{\headcommand {\slideentry {4}{3}{2}{49/49}{SMB / CIFS}{0}}}
\@writefile{nav}{\headcommand {\beamer@framepages {49}{49}}}
\@writefile{nav}{\headcommand {\slideentry {4}{3}{3}{50/50}{SMB / CIFS}{0}}}
\@writefile{nav}{\headcommand {\beamer@framepages {50}{50}}}
\@writefile{nav}{\headcommand {\slideentry {4}{3}{4}{51/51}{SMB / CIFS}{0}}}
\@writefile{nav}{\headcommand {\beamer@framepages {51}{51}}}
\@writefile{nav}{\headcommand {\slideentry {4}{3}{5}{52/52}{SMB / CIFS}{0}}}
\@writefile{nav}{\headcommand {\beamer@framepages {52}{52}}}
\@writefile{nav}{\headcommand {\slideentry {4}{3}{6}{53/53}{SMB / CIFS}{0}}}
\@writefile{nav}{\headcommand {\beamer@framepages {53}{53}}}
\@writefile{nav}{\headcommand {\slideentry {4}{3}{7}{54/54}{SMB / CIFS}{0}}}
\@writefile{nav}{\headcommand {\beamer@framepages {54}{54}}}
\@writefile{nav}{\headcommand {\slideentry {4}{3}{8}{55/58}{SMB / CIFS}{0}}}
\@writefile{nav}{\headcommand {\beamer@framepages {55}{58}}}
\@writefile{nav}{\headcommand {\slideentry {4}{3}{9}{59/59}{SMB / CIFS}{0}}}
\@writefile{nav}{\headcommand {\beamer@framepages {59}{59}}}
\@writefile{nav}{\headcommand {\slideentry {4}{3}{10}{60/60}{SMB / CIFS}{0}}}
\@writefile{nav}{\headcommand {\beamer@framepages {60}{60}}}
\@writefile{nav}{\headcommand {\slideentry {4}{3}{11}{61/61}{SMB / CIFS}{0}}}
\@writefile{nav}{\headcommand {\beamer@framepages {61}{61}}}
\@writefile{nav}{\headcommand {\slideentry {4}{3}{12}{62/62}{SMB / CIFS}{0}}}
\@writefile{nav}{\headcommand {\beamer@framepages {62}{62}}}
\@writefile{nav}{\headcommand {\slideentry {4}{3}{13}{63/63}{SMB / CIFS}{0}}}
\@writefile{nav}{\headcommand {\beamer@framepages {63}{63}}}
\@writefile{nav}{\headcommand {\slideentry {4}{3}{14}{64/64}{SMB / CIFS}{0}}}
\@writefile{nav}{\headcommand {\beamer@framepages {64}{64}}}
\@writefile{nav}{\headcommand {\slideentry {4}{3}{15}{65/65}{SMB / CIFS}{0}}}
\@writefile{nav}{\headcommand {\beamer@framepages {65}{65}}}
\@writefile{nav}{\headcommand {\slideentry {4}{3}{16}{66/66}{SMB / CIFS}{0}}}
\@writefile{nav}{\headcommand {\beamer@framepages {66}{66}}}
\@writefile{nav}{\headcommand {\slideentry {4}{3}{17}{67/67}{SMB / CIFS}{0}}}
\@writefile{nav}{\headcommand {\beamer@framepages {67}{67}}}
\@writefile{nav}{\headcommand {\slideentry {4}{3}{18}{68/68}{SMB / CIFS}{0}}}
\@writefile{nav}{\headcommand {\beamer@framepages {68}{68}}}
\@writefile{nav}{\headcommand {\slideentry {4}{3}{19}{69/69}{SMB / CIFS}{0}}}
\@writefile{nav}{\headcommand {\beamer@framepages {69}{69}}}
\@writefile{nav}{\headcommand {\slideentry {4}{3}{20}{70/70}{SMB / CIFS}{0}}}
\@writefile{nav}{\headcommand {\beamer@framepages {70}{70}}}
\@writefile{toc}{\beamer@sectionintoc {5}{Sauvegarde et archivage}{71}{0}{5}}
\@writefile{nav}{\headcommand {\sectionentry {5}{Sauv.}{71}{Sauvegarde et archivage}{0}}}
\@writefile{nav}{\headcommand {\beamer@sectionpages {38}{70}}}
\@writefile{nav}{\headcommand {\beamer@subsectionpages {48}{70}}}
\@writefile{nav}{\headcommand {\slideentry {5}{0}{21}{71/71}{}{0}}}
\@writefile{nav}{\headcommand {\beamer@framepages {71}{71}}}
\@writefile{nav}{\headcommand {\slideentry {5}{0}{22}{72/72}{}{0}}}
\@writefile{nav}{\headcommand {\beamer@framepages {72}{72}}}
\@writefile{nav}{\headcommand {\slideentry {5}{0}{23}{73/73}{}{0}}}
\@writefile{nav}{\headcommand {\beamer@framepages {73}{73}}}
\@writefile{nav}{\headcommand {\slideentry {5}{0}{24}{74/74}{}{0}}}
\@writefile{nav}{\headcommand {\beamer@framepages {74}{74}}}
\@writefile{nav}{\headcommand {\slideentry {5}{0}{25}{75/75}{}{0}}}
\@writefile{nav}{\headcommand {\beamer@framepages {75}{75}}}
\@writefile{nav}{\headcommand {\slideentry {5}{0}{26}{76/76}{}{0}}}
\@writefile{nav}{\headcommand {\beamer@framepages {76}{76}}}
\@writefile{nav}{\headcommand {\slideentry {5}{0}{27}{77/77}{}{0}}}
\@writefile{nav}{\headcommand {\beamer@framepages {77}{77}}}
\@writefile{nav}{\headcommand {\slideentry {5}{0}{28}{78/78}{}{0}}}
\@writefile{nav}{\headcommand {\beamer@framepages {78}{78}}}
\@writefile{nav}{\headcommand {\slideentry {5}{0}{29}{79/79}{}{0}}}
\@writefile{nav}{\headcommand {\beamer@framepages {79}{79}}}
\@writefile{toc}{\beamer@sectionintoc {6}{Supervision r\IeC {\'e}seau}{80}{0}{6}}
\@writefile{nav}{\headcommand {\sectionentry {6}{Superv.}{80}{Supervision r\IeC {\'e}seau}{0}}}
\@writefile{nav}{\headcommand {\beamer@sectionpages {71}{79}}}
\@writefile{nav}{\headcommand {\beamer@subsectionpages {71}{79}}}
\@writefile{nav}{\headcommand {\slideentry {6}{0}{30}{80/80}{}{0}}}
\@writefile{nav}{\headcommand {\beamer@framepages {80}{80}}}
\@writefile{toc}{\beamer@subsectionintoc {6}{1}{Intro}{81}{0}{6}}
\@writefile{nav}{\headcommand {\beamer@subsectionentry {0}{6}{1}{81}{Intro}}\headcommand {\beamer@subsectionpages {80}{80}}}
\@writefile{nav}{\headcommand {\slideentry {6}{1}{1}{81/81}{Intro}{0}}}
\@writefile{nav}{\headcommand {\beamer@framepages {81}{81}}}
\@writefile{toc}{\beamer@subsectionintoc {6}{2}{Pratique}{82}{0}{6}}
\@writefile{nav}{\headcommand {\beamer@subsectionentry {0}{6}{2}{82}{Pratique}}\headcommand {\beamer@subsectionpages {81}{81}}}
\@writefile{nav}{\headcommand {\slideentry {6}{2}{1}{82/82}{Pratique}{0}}}
\@writefile{nav}{\headcommand {\beamer@framepages {82}{82}}}
\@writefile{nav}{\headcommand {\slideentry {6}{2}{2}{83/83}{Pratique}{0}}}
\@writefile{nav}{\headcommand {\beamer@framepages {83}{83}}}
\@writefile{nav}{\headcommand {\slideentry {6}{2}{3}{84/84}{Pratique}{0}}}
\@writefile{nav}{\headcommand {\beamer@framepages {84}{84}}}
\@writefile{toc}{\beamer@subsectionintoc {6}{3}{SNMP}{85}{0}{6}}
\@writefile{nav}{\headcommand {\beamer@subsectionentry {0}{6}{3}{85}{SNMP}}\headcommand {\beamer@subsectionpages {82}{84}}}
\@writefile{nav}{\headcommand {\slideentry {6}{3}{1}{85/85}{SNMP}{0}}}
\@writefile{nav}{\headcommand {\beamer@framepages {85}{85}}}
\@writefile{nav}{\headcommand {\beamer@partpages {1}{85}}}
\@writefile{nav}{\headcommand {\beamer@subsectionpages {85}{85}}}
\@writefile{nav}{\headcommand {\beamer@sectionpages {80}{85}}}
\@writefile{nav}{\headcommand {\beamer@documentpages {85}}}
\@writefile{nav}{\headcommand {\def \inserttotalframenumber {82}}}
