#FIG 3.2  Produced by xfig version 3.2.5-alpha5
Landscape
Center
Metric
A4      
100.00
Single
-2
1200 2
6 1392 200 1616 252
1 3 0 1 0 0 50 -1 20 0.000 1 0.0000 1418 226 26 26 1418 226 1440 239
1 3 0 1 0 0 50 -1 20 0.000 1 0.0000 1506 226 26 26 1506 226 1528 239
1 3 0 1 0 0 50 -1 20 0.000 1 0.0000 1590 226 26 26 1590 226 1612 239
-6
6 2523 200 2747 252
1 3 0 1 0 0 50 -1 20 0.000 1 0.0000 2549 226 26 26 2549 226 2571 239
1 3 0 1 0 0 50 -1 20 0.000 1 0.0000 2637 226 26 26 2637 226 2659 239
1 3 0 1 0 0 50 -1 20 0.000 1 0.0000 2721 226 26 26 2721 226 2743 239
-6
2 2 0 1 0 7 50 -1 -1 0.000 0 0 -1 0 0 5
	 0 1350 3600 1350 3600 1800 0 1800 0 1350
2 2 0 1 0 7 50 -1 -1 0.000 0 0 -1 0 0 5
	 0 900 3600 900 3600 1350 0 1350 0 900
2 2 0 1 0 7 50 -1 -1 0.000 0 0 -1 0 0 5
	 0 0 675 0 675 450 0 450 0 0
2 2 0 1 0 7 50 -1 -1 0.000 0 0 -1 0 0 5
	 675 0 1350 0 1350 450 675 450 675 0
2 2 0 1 0 7 50 -1 -1 0.000 0 0 -1 0 0 5
	 0 450 1800 450 1800 900 0 900 0 450
2 2 0 1 0 7 50 -1 -1 0.000 0 0 -1 0 0 5
	 1800 0 2475 0 2475 450 1800 450 1800 0
2 2 0 1 0 7 50 -1 -1 0.000 0 0 -1 0 0 5
	 2925 450 3600 450 3600 900 2925 900 2925 450
2 2 0 1 0 7 50 -1 -1 0.000 0 0 -1 0 0 5
	 1800 450 2925 450 2925 900 1800 900 1800 450
4 0 0 50 -1 0 12 0.0000 4 150 540 80 287 HTTP\001
4 0 0 50 -1 0 12 0.0000 4 150 390 825 287 POP\001
4 0 0 50 -1 0 12 0.0000 4 150 405 714 750 TCP\001
4 0 0 50 -1 0 12 0.0000 4 150 420 2154 750 UDP\001
4 0 0 50 -1 0 12 0.0000 4 150 540 3027 754 ICMP\001
4 1 0 50 -1 0 12 0.0000 4 150 1410 1795 1636 Ethernet - MAC\001
4 1 0 50 -1 0 12 0.0000 4 150 195 1829 1196 IP\001
4 0 0 50 -1 0 12 0.0000 4 150 405 1959 291 NFS\001
