#FIG 3.2  Produced by xfig version 3.2.5
Landscape
Center
Metric
A4      
100.00
Single
-2
1200 2
5 1 0 1 0 7 50 -1 -1 0.000 0 0 0 0 806.029 1798.677 1260 1800 1170 2070 855 2250
5 1 0 1 0 7 50 -1 -1 0.000 0 1 0 0 1848.971 1798.677 1395 1800 1485 2070 1800 2250
6 5535 1170 6795 1710
4 1 0 50 -1 0 14 0.0000 4 165 1230 6165 1350 Serveur web\001
4 1 0 50 -1 0 14 0.0000 4 225 810 6165 1620 (apache)\001
-6
1 2 0 1 0 7 50 -1 -1 0.000 1 0.0000 6165 1350 675 720 5490 630 6840 2070
1 2 0 1 0 7 50 -1 -1 0.000 1 0.0000 1350 1147 765 517 585 1147 2115 1147
2 2 0 1 0 7 50 -1 -1 0.000 0 0 -1 0 0 5
	 450 450 2250 450 2250 1800 450 1800 450 450
2 2 0 1 0 7 50 -1 -1 0.000 0 0 -1 0 0 5
	 450 2250 2250 2250 2250 2610 450 2610 450 2250
2 2 0 1 0 7 50 -1 -1 0.000 0 0 -1 0 0 5
	 5400 405 6930 405 6930 2655 5400 2655 5400 405
3 2 0 2 0 7 50 -1 -1 0.000 0 1 0 3
	0 0 2.00 60.00 120.00
	 2520 1125 3780 720 5175 855
	 0.000 -1.000 0.000
3 2 0 2 0 7 50 -1 -1 0.000 0 1 0 3
	0 0 2.00 60.00 120.00
	 5196 1742 3936 2147 2541 2012
	 0.000 -1.000 0.000
4 1 0 50 -1 0 14 0.0000 4 165 615 1305 2520 Client\001
4 1 0 50 -1 0 14 0.0000 4 165 765 6075 2520 Serveur\001
4 0 0 50 -1 0 12 0.0000 4 195 1335 3330 2430 Reponse HTTP\001
4 0 0 50 -1 0 12 0.0000 4 195 1305 3060 495 Requete HTTP\001
4 1 0 50 -1 0 16 0.0000 4 255 1170 1395 1215 navigateur\001
